Gun Violence in America
…
The other difficulties was to combine the yearwise data to one complete dataset.

To format the date and extract the Year to perform Statistical Analysis.

Some unique datasets were taken from multiple websites through Web Scraping

Initial Analysis

mass_shootings$Incident.Date <- mdy(mass_shootings$`Incident Date`)
mass_shootings <- mass_shootings %>% mutate(Year = substring(.$Incident.Date,1,4))
mass_shootings$State <- casefold(mass_shootings$State, upper = FALSE)
state_demographics <- mass_shootings %>% group_by(State) %>% summarise(n = sum(`# Killed`)) %>% ungroup()
state_demographics %>% arrange(-n)

## # A tibble: 46 x 2
##    State              n
##    <chr>          <int>
##  1 florida          124
##  2 california       120
##  3 texas            102
##  4 georgia           66
##  5 illinois          55
##  6 ohio              45
##  7 south carolina    34
##  8 new york          32
##  9 louisiana         30
## 10 missouri          29
## # ... with 36 more rows
…
Gun Violence by Place Type

stanford_data %>% group_by(`Place Type`) %>% summarise(n = sum(`Total Number of Victims`)) %>% ungroup() %>% arrange(-n)

## # A tibble: 30 x 2
##    `Place Type`                           n
##    <chr>                              <int>
##  1 Residential home/Neighborhood        472
##  2 Entertainment venue                  278
##  3 College/University/Adult education   270
##  4 Company/Factory/Office               213
##  5 Secondary school                     196
##  6 Primary school                       164
##  7 Street/Highway                       157
##  8 Government facility                  134
##  9 Restaurant/Cafe?                     126
## 10 Retail/Wholesale/Services facility   125
## # ... with 20 more rows

Gun Violence by Age

stanford_data %>% group_by(`Shooter Age(s)`) %>% summarise(n = sum(`Total Number of Victims`)) %>% ungroup() %>% arrange(-n)

## # A tibble: 80 x 2
##    `Shooter Age(s)`     n
##    <chr>            <int>
##  1 Unknown            172
##  2 24                 140
##  3 29                 123
##  4 23                 108
##  5 41                  99
##  6 20                  97
##  7 25                  90
##  8 34                  89
##  9 44                  79
## 10 39                  78
## # ... with 70 more rows
…
